{
  "images" : [
    {
      "idiom" : "universal",
      "filename" : "transparentPill.pdf",
      "resizing" : {
        "mode" : "3-part-horizontal",
        "center" : {
          "mode" : "tile",
          "width" : 1
        },
        "cap-insets" : {
          "right" : 15,
          "left" : 15
        }
      }
    }
  ],
  "info" : {
    "version" : 1,
    "author" : "xcode"
  }
}